// Jest Snapshot v1, https://goo.gl/fbAQLP

exports[`Sidebar should render correctly with greeting 1`] = `
<aside
  style="width:20%;height:100%;background:royalblue;float:left"
>
  <h2>
    Sidebar
  </h2>
  <p>
    Some sidebar content.
  </p>
  <div>
    My name is: 
    <pre>
      cornel
    </pre>
  </div>
</aside>
`;
